10 Survey design & analysis | Marketing Research Design & Analysis 2020
…
Issue: How to create a bar chart for multiple answers on multiple choice questions?

Solution:

Let’s load the packages qualtRics and ggplot2 and Qualtrics survey data first:

library(qualtRics)
library(ggplot2)
qualtrics_1 <- read_survey("data/mrda_2.csv")

We would like to visualize question 2 (multiple choice question with multiple answers) which has 4 categories:

qualtrics_1[, c("Q2_1", "Q2_2", "Q2_3", "Q2_4")]

## # A tibble: 72 x 4
##     Q2_1  Q2_2 Q2_3   Q2_4
##    <dbl> <dbl> <lgl> <dbl>
##  1    NA    NA NA        1
##  2     1    NA NA       NA
##  3     1    NA NA       NA
##  4    NA    NA NA        1
##  5     1    NA NA       NA
##  6     1    NA NA       NA
##  7     1     1 NA       NA
##  8     1    NA NA       NA
##  9     1    NA NA       NA
## 10     1    NA NA       NA
## # ... with 62 more rows
…
